{
    "status": "0",
    "errCode": "",
    "message": "",
    "data": {
        "total": 31,
        "page": 1,
		"pageSize":20,
		"totalPage":4,
        "data": [{
            "tid": "400000000000003",
            "serviceStaff": "tu_taotao",
            "grade": "VIP会员",
            "created": "2013-07-16 00:00:00",
            "endTime": "2013-07-20 00:00:00",
            "receiverName": "彭屏",
            "receiverPhone": "15982458830",
            "receiverState": "",
            "receiverCity": "",
            "receiverDistrict": "",
            "receiverAddress": "",
            "receiverZip": "",
            "payment": 112.0,
            "postFee": 0.0,
            "status": "等待买家付款",
            "sellerFlag": 0,
            "buyerMessage": "买家留言",
            "isHide": true,
            "urpayStatus": 0,
            "urpayStatus0": {
                "advicesStatus": 0,
                "tradeCount": 3,
                "noPayedCount": 2,
                "payedCount": 1,
                "closeCount": 0,
                "msg": "3天内未进行过催付"
            },
            "urpayStatus1": [],
            "goodsItems": [{
                "title": "favority测试商品3",
                "picPath": "http://img01.taobaocdn.com/bao/uploaded/i1/T1vA6zXlBaXXbMNj3Z_033128.jpg",
                "detailUrl": "http://detail.taobao.com/item.htm?id=323456789",
                "price": 110.0,
                "num": 1,
                "skuPropertiesName": "颜色分类：黄格；尺码：41"
            }],
			"followupStatus": "",
			"followupId": "",
			"memoVo":{
				"sellerMemo":"卖家备注",
				"buyerMemo":"买家留言",
				"flag":0
			}
        },{
            "tid": "400000000000004",
            "serviceStaff": "tu_taotao",
            "grade": "VIP会员",
            "created": "2013-07-16 00:00:00",
            "endTime": "2013-07-20 00:00:00",
            "receiverName": "彭屏",
            "receiverPhone": "",
            "receiverState": "",
            "receiverCity": "",
            "receiverDistrict": "",
            "receiverAddress": "",
            "receiverZip": "",
            "payment": 112.0,
            "postFee": 0.0,
            "status": "等待买家付款",
            "sellerFlag": 0,
            "buyerMessage": "买家留言",
            "isHide": true,
            "urpayStatus": 0,
            "urpayStatus0": {
                "advicesStatus": 0,
                "tradeCount": 3,
                "noPayedCount": 2,
                "payedCount": 1,
                "closeCount": 0,
                "msg": "3天内未进行过催付"
            },
            "urpayStatus1": [],
            "goodsItems": [{
                "title": "favority测试商品3",
                "picPath": "http://img01.taobaocdn.com/bao/uploaded/i1/T1vA6zXlBaXXbMNj3Z_033128.jpg",
                "detailUrl": "http://detail.taobao.com/item.htm?id=323456789",
                "price": 110.0,
                "num": 1,
                "skuPropertiesName": "颜色分类：黄格；尺码：41"
            }],
			"followupStatus": 1,
			"followupId": 1,
			"memoVo":{
				"sellerMemo":"",
				"buyerMemo":"买家留言",
				"flag":0
			}
        },{
            "tid": "400000000000005",
            "serviceStaff": "tu_taotao",
            "grade": "VIP会员",
            "created": "2013-07-16 00:00:00",
            "endTime": "2013-07-20 00:00:00",
            "receiverName": "彭屏",
            "receiverPhone": "",
            "receiverState": "",
            "receiverCity": "",
            "receiverDistrict": "",
            "receiverAddress": "",
            "receiverZip": "",
            "payment": 112.0,
            "postFee": 0.0,
            "status": "等待买家付款",
            "sellerFlag": 0,
            "buyerMessage": "买家留言",
            "isHide": true,
            "urpayStatus": 0,
            "urpayStatus0": {
                "advicesStatus": 0,
                "tradeCount": 3,
                "noPayedCount": 2,
                "payedCount": 1,
                "closeCount": 0,
                "msg": "3天内未进行过催付"
            },
            "urpayStatus1": [],
            "goodsItems": [{
                "title": "favority测试商品3",
                "picPath": "http://img01.taobaocdn.com/bao/uploaded/i1/T1vA6zXlBaXXbMNj3Z_033128.jpg",
                "detailUrl": "http://detail.taobao.com/item.htm?id=323456789",
                "price": 110.0,
                "num": 1,
                "skuPropertiesName": "颜色分类：黄格；尺码：41"
            }],
			"followupStatus": 2,
			"followupId": 2,
			"memoVo":{
				"sellerMemo":"买家留言",
				"buyerMemo":"买家留言",
				"flag":0
			}
        },{
            "tid": "400000000000006",
            "serviceStaff": "tu_taotao",
            "grade": "VIP会员",
            "created": "2013-07-16 00:00:00",
            "endTime": "2013-07-20 00:00:00",
            "receiverName": "彭屏",
            "receiverPhone": "",
            "receiverState": "",
            "receiverCity": "",
            "receiverDistrict": "",
            "receiverAddress": "",
            "receiverZip": "",
            "payment": 112.0,
            "postFee": 0.0,
            "status": "等待买家付款",
            "sellerFlag": 0,
            "buyerMessage": "买家留言",
            "isHide": true,
            "urpayStatus": 0,
            "urpayStatus0": {
                "advicesStatus": 0,
                "tradeCount": 3,
                "noPayedCount": 2,
                "payedCount": 1,
                "closeCount": 0,
                "msg": "3天内未进行过催付"
            },
            "urpayStatus1": [],
            "goodsItems": [{
                "title": "favority测试商品3",
                "picPath": "http://img01.taobaocdn.com/bao/uploaded/i1/T1vA6zXlBaXXbMNj3Z_033128.jpg",
                "detailUrl": "http://detail.taobao.com/item.htm?id=323456789",
                "price": 110.0,
                "num": 1,
                "skuPropertiesName": "颜色分类：黄格；尺码：41"
            }],
			"followupStatus": 3,
			"followupId": 3,
			"memoVo":{
				"sellerMemo":"买家留言",
				"buyerMemo":"买家留言",
				"flag":0
			}
        },{
            "tid": "400000000000007",
            "serviceStaff": "tu_taotao",
            "grade": "VIP会员",
            "created": "2013-07-16 00:00:00",
            "endTime": "2013-07-20 00:00:00",
            "receiverName": "彭屏",
            "receiverPhone": "",
            "receiverState": "",
            "receiverCity": "",
            "receiverDistrict": "",
            "receiverAddress": "",
            "receiverZip": "",
            "payment": 112.0,
            "postFee": 0.0,
            "status": "等待买家付款",
            "sellerFlag": 0,
            "buyerMessage": "买家留言",
            "isHide": true,
            "urpayStatus": 0,
            "urpayStatus0": {
                "advicesStatus": 0,
                "tradeCount": 3,
                "noPayedCount": 2,
                "payedCount": 1,
                "closeCount": 0,
                "msg": "3天内未进行过催付"
            },
            "urpayStatus1": [],
            "goodsItems": [{
                "title": "favority测试商品3",
                "picPath": "http://img01.taobaocdn.com/bao/uploaded/i1/T1vA6zXlBaXXbMNj3Z_033128.jpg",
                "detailUrl": "http://detail.taobao.com/item.htm?id=323456789",
                "price": 110.0,
                "num": 1,
                "skuPropertiesName": "颜色分类：黄格；尺码：41"
            }],
			"followupStatus": 4,
			"followupId": 4,
			"memoVo":{
				"sellerMemo":"买家留言",
				"buyerMemo":"买家留言",
				"flag":0
			}
        },{
            "tid": "23136465464646",
            "serviceStaff": "tomwalk",
            "grade": "VIP会员",
            "created": "2013-07-16 00:00:00",
            "endTime": "2013-07-20 00:00:00",
            "receiverName": "彭屏",
            "receiverPhone": "",
            "receiverState": "",
            "receiverCity": "",
            "receiverDistrict": "",
            "receiverAddress": "",
            "receiverZip": "",
            "payment": 112.0,
            "postFee": 0.0,
            "status": "等待买家付款",
            "sellerFlag": 0,
            "buyerMessage": "买家留言",
            "isHide": true,
            "urpayStatus": 0,
            "urpayStatus0": {
                "advicesStatus": 0,
                "tradeCount": 3,
                "noPayedCount": 2,
                "payedCount": 1,
                "closeCount": 0,
                "msg": "3天内未进行过催付"
            },
            "urpayStatus1": [],
            "goodsItems": [{
                "title": "favority测试商品3",
                "picPath": "http://img01.taobaocdn.com/bao/uploaded/i1/T1vA6zXlBaXXbMNj3Z_033128.jpg",
                "detailUrl": "http://detail.taobao.com/item.htm?id=323456789",
                "price": 110.0,
                "num": 1,
                "skuPropertiesName": "颜色分类：黄格；尺码：41"
            }],
			"followupStatus": -1,
			"followupId": "",
			"memoVo":{
				"sellerMemo":"买家留言",
				"buyerMemo":"买家留言",
				"flag":0
			}
        },{
            "tid": "400000000000003",
            "serviceStaff": "tu_taotao",
            "grade": "VIP会员",
            "created": "2013-07-16 00:00:00",
            "endTime": "2013-07-20 00:00:00",
            "receiverName": "彭屏",
            "receiverPhone": "",
            "receiverState": "",
            "receiverCity": "",
            "receiverDistrict": "",
            "receiverAddress": "",
            "receiverZip": "",
            "payment": 112.0,
            "postFee": 0.0,
            "status": "等待买家付款",
            "sellerFlag": 0,
            "buyerMessage": "买家留言",
            "isHide": true,
            "urpayStatus": 0,
            "urpayStatus0": {
                "advicesStatus": 0,
                "tradeCount": 3,
                "noPayedCount": 2,
                "payedCount": 1,
                "closeCount": 0,
                "msg": "3天内未进行过催付"
            },
            "urpayStatus1": [],
            "goodsItems": [{
                "title": "favority测试商品3",
                "picPath": "http://img01.taobaocdn.com/bao/uploaded/i1/T1vA6zXlBaXXbMNj3Z_033128.jpg",
                "detailUrl": "http://detail.taobao.com/item.htm?id=323456789",
                "price": 110.0,
                "num": 1,
                "skuPropertiesName": "颜色分类：黄格；尺码：41"
            }],
			"followupStatus": 1,
			"followupId": 5,
			"memoVo":{
				"sellerMemo":"买家留言",
				"buyerMemo":"买家留言",
				"flag":0
			}
        },{
            "tid": "400000000000003",
            "serviceStaff": "tu_taotao",
            "grade": "VIP会员",
            "created": "2013-07-16 00:00:00",
            "endTime": "2013-07-20 00:00:00",
            "receiverName": "彭屏",
            "receiverPhone": "",
            "receiverState": "",
            "receiverCity": "",
            "receiverDistrict": "",
            "receiverAddress": "",
            "receiverZip": "",
            "payment": 112.0,
            "postFee": 0.0,
            "status": "等待买家付款",
            "sellerFlag": 0,
            "buyerMessage": "买家留言",
            "isHide": true,
            "urpayStatus": 0,
            "urpayStatus0": {
                "advicesStatus": 0,
                "tradeCount": 3,
                "noPayedCount": 2,
                "payedCount": 1,
                "closeCount": 0,
                "msg": "3天内未进行过催付"
            },
            "urpayStatus1": [],
            "goodsItems": [{
                "title": "favority测试商品3",
                "picPath": "http://img01.taobaocdn.com/bao/uploaded/i1/T1vA6zXlBaXXbMNj3Z_033128.jpg",
                "detailUrl": "http://detail.taobao.com/item.htm?id=323456789",
                "price": 110.0,
                "num": 1,
                "skuPropertiesName": "颜色分类：黄格；尺码：41"
            }],
			"followupStatus": 1,
			"followupId": 6,
			"memoVo":{
				"sellerMemo":"买家留言",
				"buyerMemo":"买家留言",
				"flag":0
			}
        },{
            "tid": "400000000000003",
            "serviceStaff": "tu_taotao",
            "grade": "VIP会员",
            "created": "2013-07-16 00:00:00",
            "endTime": "2013-07-20 00:00:00",
            "receiverName": "彭屏",
            "receiverPhone": "",
            "receiverState": "",
            "receiverCity": "",
            "receiverDistrict": "",
            "receiverAddress": "",
            "receiverZip": "",
            "payment": 112.0,
            "postFee": 0.0,
            "status": "等待买家付款",
            "sellerFlag": 0,
            "buyerMessage": "买家留言",
            "isHide": true,
            "urpayStatus": 0,
            "urpayStatus0": {
                "advicesStatus": 0,
                "tradeCount": 3,
                "noPayedCount": 2,
                "payedCount": 1,
                "closeCount": 0,
                "msg": "3天内未进行过催付"
            },
            "urpayStatus1": [],
            "goodsItems": [{
                "title": "favority测试商品3",
                "picPath": "http://img01.taobaocdn.com/bao/uploaded/i1/T1vA6zXlBaXXbMNj3Z_033128.jpg",
                "detailUrl": "http://detail.taobao.com/item.htm?id=323456789",
                "price": 110.0,
                "num": 1,
                "skuPropertiesName": "颜色分类：黄格；尺码：41"
            }],
			"followupStatus": -1,
			"followupId": "",
			"memoVo":{
				"sellerMemo":"买家留言",
				"buyerMemo":"买家留言",
				"flag":0
			}
        },{
            "tid": "400000000000003",
            "serviceStaff": "tu_taotao",
            "grade": "VIP会员",
            "created": "2013-07-16 00:00:00",
            "endTime": "2013-07-20 00:00:00",
            "receiverName": "彭屏",
            "receiverPhone": "",
            "receiverState": "",
            "receiverCity": "",
            "receiverDistrict": "",
            "receiverAddress": "",
            "receiverZip": "",
            "payment": 112.0,
            "postFee": 0.0,
            "status": "等待买家付款",
            "sellerFlag": 0,
            "buyerMessage": "买家留言",
            "isHide": true,
            "urpayStatus": 0,
            "urpayStatus0": {
                "advicesStatus": 0,
                "tradeCount": 3,
                "noPayedCount": 2,
                "payedCount": 1,
                "closeCount": 0,
                "msg": "3天内未进行过催付"
            },
            "urpayStatus1": [],
            "goodsItems": [{
                "title": "favority测试商品3",
                "picPath": "http://img01.taobaocdn.com/bao/uploaded/i1/T1vA6zXlBaXXbMNj3Z_033128.jpg",
                "detailUrl": "http://detail.taobao.com/item.htm?id=323456789",
                "price": 110.0,
                "num": 1,
                "skuPropertiesName": "颜色分类：黄格；尺码：41"
            }],
			"followupStatus": -1,
			"followupId": "",
			"memoVo":{
				"sellerMemo":"买家留言",
				"buyerMemo":"买家留言",
				"flag":0
			}
        },{
            "tid": "400000000000003",
            "serviceStaff": "tu_taotao",
            "grade": "VIP会员",
            "created": "2013-07-16 00:00:00",
            "endTime": "2013-07-20 00:00:00",
            "receiverName": "彭屏",
            "receiverPhone": "",
            "receiverState": "",
            "receiverCity": "",
            "receiverDistrict": "",
            "receiverAddress": "",
            "receiverZip": "",
            "payment": 112.0,
            "postFee": 0.0,
            "status": "等待买家付款",
            "sellerFlag": 0,
            "buyerMessage": "买家留言",
            "isHide": true,
            "urpayStatus": 0,
            "urpayStatus0": {
                "advicesStatus": 0,
                "tradeCount": 3,
                "noPayedCount": 2,
                "payedCount": 1,
                "closeCount": 0,
                "msg": "3天内未进行过催付"
            },
            "urpayStatus1": [],
            "goodsItems": [{
                "title": "favority测试商品3",
                "picPath": "http://img01.taobaocdn.com/bao/uploaded/i1/T1vA6zXlBaXXbMNj3Z_033128.jpg",
                "detailUrl": "http://detail.taobao.com/item.htm?id=323456789",
                "price": 110.0,
                "num": 1,
                "skuPropertiesName": "颜色分类：黄格；尺码：41"
            }],
			"followupStatus": -1,
			"followupId": "",
			"memoVo":{
				"sellerMemo":"买家留言",
				"buyerMemo":"买家留言",
				"flag":0
			}
        },{
            "tid": "400000000000003",
            "serviceStaff": "tu_taotao",
            "grade": "VIP会员",
            "created": "2013-07-16 00:00:00",
            "endTime": "2013-07-20 00:00:00",
            "receiverName": "彭屏",
            "receiverPhone": "",
            "receiverState": "",
            "receiverCity": "",
            "receiverDistrict": "",
            "receiverAddress": "",
            "receiverZip": "",
            "payment": 112.0,
            "postFee": 0.0,
            "status": "等待买家付款",
            "sellerFlag": 0,
            "buyerMessage": "买家留言",
            "isHide": true,
            "urpayStatus": 0,
            "urpayStatus0": {
                "advicesStatus": 0,
                "tradeCount": 3,
                "noPayedCount": 2,
                "payedCount": 1,
                "closeCount": 0,
                "msg": "3天内未进行过催付"
            },
            "urpayStatus1": [],
            "goodsItems": [{
                "title": "favority测试商品3",
                "picPath": "http://img01.taobaocdn.com/bao/uploaded/i1/T1vA6zXlBaXXbMNj3Z_033128.jpg",
                "detailUrl": "http://detail.taobao.com/item.htm?id=323456789",
                "price": 110.0,
                "num": 1,
                "skuPropertiesName": "颜色分类：黄格；尺码：41"
            }],
			"followupStatus": -1,
			"followupId": "",
			"memoVo":{
				"sellerMemo":"买家留言",
				"buyerMemo":"买家留言",
				"flag":0
			}
        },{
            "tid": "400000000000003",
            "serviceStaff": "tu_taotao",
            "grade": "VIP会员",
            "created": "2013-07-16 00:00:00",
            "endTime": "2013-07-20 00:00:00",
            "receiverName": "彭屏",
            "receiverPhone": "",
            "receiverState": "",
            "receiverCity": "",
            "receiverDistrict": "",
            "receiverAddress": "",
            "receiverZip": "",
            "payment": 112.0,
            "postFee": 0.0,
            "status": "等待买家付款",
            "sellerFlag": 0,
            "buyerMessage": "买家留言",
            "isHide": true,
            "urpayStatus": 0,
            "urpayStatus0": {
                "advicesStatus": 0,
                "tradeCount": 3,
                "noPayedCount": 2,
                "payedCount": 1,
                "closeCount": 0,
                "msg": "3天内未进行过催付"
            },
            "urpayStatus1": [],
            "goodsItems": [{
                "title": "favority测试商品3",
                "picPath": "http://img01.taobaocdn.com/bao/uploaded/i1/T1vA6zXlBaXXbMNj3Z_033128.jpg",
                "detailUrl": "http://detail.taobao.com/item.htm?id=323456789",
                "price": 110.0,
                "num": 1,
                "skuPropertiesName": "颜色分类：黄格；尺码：41"
            }],
			"followupStatus": -1,
			"followupId": "",
			"memoVo":{
				"sellerMemo":"买家留言",
				"buyerMemo":"买家留言",
				"flag":0
			}
        }]
    },
    "visit": "2013-07-14 11:45:59"
}