{
    "status": 0,
    "errCode": "",
    "message": "",
    "data": {
        "total": 12,
		"page": 1,
		"totalPage": 2,
		"pageSize": 10,
		"statusStatistics": {
			"refund": 1,
			"onlyRefundHasSendGoods": 0,
			"refundNoSendGoods": 0,
			"returnGoodsWaitBuyer": 1,
			"returnGoodsWaitSeller": 0,
			"returnGoodsWaitSellerConfirm": 0
		},
        "data": [{
            "reason": "七天无理由退换货",
			"refundDesc": "穿着大，和想象的不一样。",
			"hasGoodReturn": true,
			"orderStatus": "付款以后用户退款成功",
			"status": "买家已经申请退款，等待卖家同意",
			"buyerNick": "淡淡清茶1975",
			"tid": "375748209580875",
			"oid":"801000000000001",
			"refundId": "13408769093901",
			"receiverMobile":"13818569496",
			"csStatus":"",
			"title": "水云间 正品 2013夏装针织小开衫薄短款防晒衫小坎肩外搭夏防晒衣",
			"refundFee": 149.5,
			"numIid": "13408769093901",
			"payment": "20.00",
			"shippingStatus": "疑难件",
			"companyName": "",
			"grade": "高级会员",
			"created":"2013-08-5 12:00:00",
			 "timeout":"2013-08-19 12:00:00",
			 "isCare":true,
			 "picPath" : "http://img04.taobaocdn.com/bao/uploaded/i4/19653023790592592/T1o.CUXEFaXXXXXXXX_!!0-item_pic.jpg",
			"skuPropertiesName":"颜色：黑",
			"abnormalStatus":"疑难件",
			"abnormalReason":"疑难件：物流信息中包含 疑难件 关键字",
			"careLogs":[{
				"serviceStaff":"李卫林",
				"date":"2013-05-16 18:46:30",
				"manualUrpayStatus":"1",
				"content":"感谢您下单... "
			}],
			"followupStatus": -1,
			"followupId": "",
			"memoVo":{
				"sellerMemo":"买家留言",
				"buyerMemo":"买家留言",
				"flag":0
			}
        },
        {
            "reason": "未按约定时间发货",
			"refundDesc": "",
			"hasGoodReturn": false,
			"orderStatus": "付款以后用户退款成功",
			"status": "卖家已经同意退款，等待买家退货",
			"buyerNick": "淡淡清茶1975",
			"tid": "375748209580875",
			"oid":"801000000000001",
			"refundId": "13408769093902",
			"receiverMobile":"13818569496",
			"csStatus":4,
			"title": "水云间 正品 2013夏装针织小开衫薄短款防晒衫小坎肩外搭夏防晒衣",
			"refundFee": 149.5,
			"numIid": "13408769093901",
			"payment": "20.00",
			"shippingStatus": "已同城",
			"companyName": "申通E物流",
			"grade": "普通会员",
			"created":"2013-07-5 12:00:00",
			 "timeout":"2013-08-09 12:00:00",
			 "isCare":false,
			 "picPath" : "http://img04.taobaocdn.com/bao/uploaded/i4/19653023790592592/T1o.CUXEFaXXXXXXXX_!!0-item_pic.jpg",
			"skuPropertiesName":"颜色：黑",
			"skuPropertiesName":"颜色：黑",
			"careLogs":[{
	
			}],
			"followupStatus": -1,
			"followupId": "",
			"memoVo":{
				"sellerMemo":"买家留言",
				"buyerMemo":"买家留言",
				"flag":0
			}
        },
        {
            "reason": "收到假货",
			"refundDesc": "",
			"hasGoodReturn": true,
			"orderStatus": "付款以后用户退款成功",
			"status": "买家已经退货，等待卖家确认收货",
			"buyerNick": "淡淡清茶1975",
			"tid": "375748209580875",
			"oid":"801000000000001",
			"refundId": "13408769093903",
			"receiverMobile":"13818569496",
			"csStatus":1,
			"title": "水云间 正品 2013夏装针织小开衫薄短款防晒衫小坎肩外搭夏防晒衣",
			"refundFee": 149.5,
			"numIid": "13408769093901",
			"payment": "20.00",
			"shippingStatus": "已同城",
			"companyName": "申通E物流",
			"grade": "新会员",
			"created":"2013-07-5 12:00:00",
			"timeout":"2013-08-09 12:00:00",
			 "isCare":true,
			 "picPath" : "http://img04.taobaocdn.com/bao/uploaded/i4/19653023790592592/T1o.CUXEFaXXXXXXXX_!!0-item_pic.jpg",
			"skuPropertiesName":"颜色：黑",
			"careLogs":[{
				"serviceStaff":"李卫林",
				"date":"2013-05-16 18:46:30",
				"manualUrpayStatus":"1",
				"content":"感谢您下单... "
			},{
				"serviceStaff":"李卫林",
				"date":"2013-05-16 18:46:30",
				"manualUrpayStatus":"1",
				"content":"感谢您下单... "
			}],
			"followupStatus": 1,
			"followupId": 134,
			"memoVo":{
				"sellerMemo":"买家留言",
				"buyerMemo":"买家留言",
				"flag":0
			}
        },
        {
            "reason": "七天无理由退换货",
			"refundDesc": "",
			"hasGoodReturn": true,
			"orderStatus": "付款以后用户退款成功",
			"status": "卖家拒绝退款",
			"buyerNick": "淡淡清茶1975",
			"tid": "375748209580875",
			"oid":"801000000000001",
			"refundId": "13408769093904",
			"receiverMobile":"13818569496",
			"csStatus": 1,
			"title": "水云间 正品 2013夏装针织小开衫薄短款防晒衫小坎肩外搭夏防晒衣",
			"refundFee": 149.5,
			"numIid": "13408769093901",
			"payment": "20.00",
			"shippingStatus": "已同城",
			"companyName": "申通E物流",
			"grade": "VIP会员",
			"created":"2013-07-5 12:00:00",
			"timeout":"2013-08-09 12:00:00",
			 "isCare":false,
			 "picPath" : "http://img04.taobaocdn.com/bao/uploaded/i4/19653023790592592/T1o.CUXEFaXXXXXXXX_!!0-item_pic.jpg",
			"skuPropertiesName":"颜色：黑",
			"followupStatus": 2,
			"followupId": 34242,
			"memoVo":{
				"sellerMemo":"买家留言",
				"buyerMemo":"买家留言",
				"flag":0
			}
        },
        {
            "reason": "七天无理由退换货",
			"refundDesc": "穿着大，和想象的不一样。",
			"hasGoodReturn": true,
			"orderStatus": "付款以后用户退款成功",
			"status": "退款关闭",
			"buyerNick": "淡淡清茶1975",
			"tid": "375748209580875",
			"oid":"801000000000001",
			"refundId": "13408769093905",
			"receiverMobile":"13818569496",
			"csStatus": 5,
			"title": "水云间 正品 2013夏装针织小开衫薄短款防晒衫小坎肩外搭夏防晒衣",
			"refundFee": 149.5,
			"numIid": "13408769093901",
			"payment": "20.00",
			"shippingStatus": "已同城",
			"companyName": "申通E物流",
			"grade": "至尊VIP",
			"created":"2013-07-5 12:00:00",
			"timeout":"",
			 "isCare":false,
			 "picPath" : "http://img04.taobaocdn.com/bao/uploaded/i4/19653023790592592/T1o.CUXEFaXXXXXXXX_!!0-item_pic.jpg",
			"skuPropertiesName":"颜色：黑",
			"followupStatus": 3,
			"followupId": "",
			"memoVo":{
				"sellerMemo":"买家留言",
				"buyerMemo":"买家留言",
				"flag":0
			}
        },
        {
           "reason": "七天无理由退换货",
			"refundDesc": "",
			"hasGoodReturn": true,
			"orderStatus": "付款以后用户退款成功",
			"status": "退款成功",
			"buyerNick": "淡淡清茶1975",
			"tid": "375748209580875",
			"oid":"801000000000001",
			"refundId": "13408769093906",
			"receiverMobile":"13818569496",
			"csStatus": 3,
			"title": "水云间 正品 2013夏装针织小开衫薄短款防晒衫小坎肩外搭夏防晒衣",
			"refundFee": 149.5,
			"numIid": "13408769093901",
			"payment": "20.00",
			"shippingStatus": "已同城",
			"companyName": "申通E物流",
			"grade": "高级会员",
			"created":"2013-07-5 12:00:00",
			"timeout":"2013-08-09 12:00:00",
			 "isCare":false,
			 "picPath" : "http://img04.taobaocdn.com/bao/uploaded/i4/19653023790592592/T1o.CUXEFaXXXXXXXX_!!0-item_pic.jpg",
			"skuPropertiesName":"颜色：黑",
			"followupStatus": 4,
			"followupId": "",
			"memoVo":{
				"sellerMemo":"买家留言",
				"buyerMemo":"买家留言",
				"flag":0
			}
        },
        {
           "reason": "七天无理由退换货",
			"refundDesc": "",
			"hasGoodReturn": true,
			"orderStatus": "付款以后用户退款成功",
			"status": "退款成功",
			"buyerNick": "淡淡清茶1975",
			"tid": "375748209580875",
			"oid":"801000000000001",
			"refundId": "13408769093906",
			"receiverMobile":"13818569496",
			"csStatus": 3,
			"title": "水云间 正品 2013夏装针织小开衫薄短款防晒衫小坎肩外搭夏防晒衣",
			"refundFee": 149.5,
			"numIid": "13408769093901",
			"payment": "20.00",
			"shippingStatus": "已同城",
			"companyName": "申通E物流",
			"grade": "高级会员",
			"created":"2013-07-5 12:00:00",
			"timeout":"2013-08-09 12:00:00",
			 "isCare":false,
			 "picPath" : "http://img04.taobaocdn.com/bao/uploaded/i4/19653023790592592/T1o.CUXEFaXXXXXXXX_!!0-item_pic.jpg",
			"skuPropertiesName":"颜色：黑",
			"followupStatus": -1,
			"followupId": "",
			"memoVo":{
				"sellerMemo":"买家留言",
				"buyerMemo":"买家留言",
				"flag":0
			}
        }]
    },
    "visit": "2013-08-09 11:45:59"
}